…
Remember that time and tags are optional: InfluxDB uses the server’s
local nanosecond timestamp in UTC if the timestamp is not included with
the point.

``` r
# convert the existing xts-object to data.frame
df_data <- dplyr::bind_cols(time = zoo::index(xts_data), # timestamp
                            data.frame(xts_data)) %>% # coredata
  dplyr::mutate(info = "SampleDataMatrix", # add tag 'info'
                UnitTesting = TRUE, # add tag 'UnitTesting'
                n = row_number()) # add tag 'n'

df_data
#> # A tibble: 180 x 8
#>          time     Open     High      Low    Close             info
#>        <dttm>    <dbl>    <dbl>    <dbl>    <dbl>            <chr>
#>  1 2007-01-02 50.03978 50.11778 49.95041 50.11778 SampleDataMatrix
#>  2 2007-01-03 50.23050 50.42188 50.23050 50.39767 SampleDataMatrix
#>  3 2007-01-04 50.42096 50.42096 50.26414 50.33236 SampleDataMatrix
#>  4 2007-01-05 50.37347 50.37347 50.22103 50.33459 SampleDataMatrix
#>  5 2007-01-06 50.24433 50.24433 50.11121 50.18112 SampleDataMatrix
#>  6 2007-01-07 50.13211 50.21561 49.99185 49.99185 SampleDataMatrix
#>  7 2007-01-08 50.03555 50.10363 49.96971 49.98806 SampleDataMatrix
#>  8 2007-01-09 49.99489 49.99489 49.80454 49.91333 SampleDataMatrix
#>  9 2007-01-10 49.91228 50.13053 49.91228 49.97246 SampleDataMatrix
#> 10 2007-01-11 49.88529 50.23910 49.88529 50.23910 SampleDataMatrix
#> # ... with 170 more rows, and 2 more variables: UnitTesting <lgl>, n <int>
…
